<?xml version="1.0" encoding="UTF-8"?>
<testng-results skipped="0" failed="0" total="1" passed="1">
  <reporter-output>
  </reporter-output>
  <suite name="Command line suite" duration-ms="15073" started-at="2020-04-17T07:04:03Z" finished-at="2020-04-17T07:04:19Z">
    <groups>
      <group name="cucumber">
        <method signature="AbstractTestNGCucumberTests.runScenario(io.cucumber.testng.PickleWrapper, io.cucumber.testng.FeatureWrapper)[pri:0, instance:automation.TestRunner@2096442d]" name="runScenario" class="io.cucumber.testng.AbstractTestNGCucumberTests"/>
      </group> <!-- cucumber -->
    </groups>
    <test name="Command line test" duration-ms="15073" started-at="2020-04-17T07:04:03Z" finished-at="2020-04-17T07:04:19Z">
      <class name="automation.TestRunner">
        <test-method status="PASS" signature="setUpClass()[pri:0, instance:automation.TestRunner@2096442d]" name="setUpClass" is-config="true" duration-ms="385" started-at="2020-04-17T12:34:03Z" finished-at="2020-04-17T12:34:04Z">
          <reporter-output>
          </reporter-output>
        </test-method> <!-- setUpClass -->
        <test-method status="PASS" signature="runScenario(io.cucumber.testng.PickleWrapper, io.cucumber.testng.FeatureWrapper)[pri:0, instance:automation.TestRunner@2096442d]" name="runScenario" duration-ms="14674" started-at="2020-04-17T12:34:04Z" description="Runs Cucumber Scenarios" data-provider="scenarios" finished-at="2020-04-17T12:34:19Z">
          <params>
            <param index="0">
              <value>
                <![CDATA["Search product in search bar"]]>
              </value>
            </param>
            <param index="1">
              <value>
                <![CDATA["AutomationPractice"]]>
              </value>
            </param>
          </params>
          <reporter-output>
          </reporter-output>
        </test-method> <!-- runScenario -->
        <test-method status="PASS" signature="tearDownClass()[pri:0, instance:automation.TestRunner@2096442d]" name="tearDownClass" is-config="true" duration-ms="0" started-at="2020-04-17T12:34:19Z" finished-at="2020-04-17T12:34:19Z">
          <reporter-output>
          </reporter-output>
        </test-method> <!-- tearDownClass -->
      </class> <!-- automation.TestRunner -->
    </test> <!-- Command line test -->
  </suite> <!-- Command line suite -->
</testng-results>
