automation\ExtentTestManager.class
automation\TestRunner.class
automation\SearchProductStep.class
automation\TestListener.class
automation\BaseStep.class
automation\Hooks.class
automation\ExtentManager.class
